Drop, add or convert (non-)labelled values — drop_labels • sjlabelled
…
# in a pipe-workflow
library(dplyr)
efc %>%
  select(c172code, e42dep) %>%
  set_labels(
    e42dep,
    labels = c("independent" = 1, "severe dependency" = 4)
  ) %>%
  zap_labels()
#> # A tibble: 908 x 2
#>    c172code e42dep
#>       <dbl>  <dbl>
#>  1       NA      3
#>  2       NA      3
#>  3       NA      3
#>  4       NA     NA
#>  5       NA     NA
#>  6       NA     NA
#>  7       NA     NA
#>  8       NA     NA
#>  9       NA     NA
#> 10       NA     NA
#> # ... with 898 more rows
…
